test_run_dir/OuterBuffer_should_pass/OuterBuffer.vcd
$date
2022-02-12T16:53+0000
$end
$version
0.2
$end
$comment

$end
$timescale 1ns  $end
$scope module OuterBuffer $end
 $var wire 1 - bank11 $end
 $var wire 1 / bank3 $end
 $var wire 1 1 bank14 $end
 $var wire 1 B bank6 $end
 $var wire 1 o bank5 $end
 $var wire 16 r io_BufferIO_DataIn $end
 $var wire 1 "" bank8 $end
 $var wire 16 "% io_BufferIO_DataOut $end
 $var wire 1 "0 bank10 $end
 $var wire 1 "2 bank2 $end
 $var wire 1 "8 bank13 $end
 $var wire 1 "E io_BufferIO_Enable $end
 $var wire 1 "Y clock $end
 $var wire 4 "[ io_BankIndex $end
 $var wire 1 "r bank4 $end
 $var wire 1 ## bank15 $end
 $var wire 1 #% bank7 $end
 $var wire 1 #7 bank1 $end
 $var wire 1 #> bank12 $end
 $var wire 1 #B io_BufferIO_ReadWrite $end
 $var wire 3 #F io_BufferIO_DataAddr $end
 $var wire 1 #R reset $end
 $var wire 1 #c bank0 $end
 $var wire 1 #e bank9 $end
  $scope module bank9 $end
   $var wire 16 & buffer_7 $end
   $var wire 16 3 buffer_1 $end
   $var wire 16 : io_BankIO_DataIn $end
   $var wire 16 O buffer_4 $end
   $var wire 3 R io_BankIO_DataAddr $end
   $var wire 1 V reset $end
   $var wire 1 f io_BankIO_Enable $end
   $var wire 16 ~ buffer_3 $end
   $var wire 16 "& buffer_6 $end
   $var wire 16 ": buffer_0 $end
   $var wire 16 "q io_BankIO_DataOut $end
   $var wire 16 "y buffer_2 $end
   $var wire 1 #" clock $end
   $var wire 16 #1 buffer_5 $end
   $var wire 1 #X io_BankIO_ReadWrite $end
  $upscope $end
  $scope module bank1 $end
   $var wire 16 % buffer_2 $end
   $var wire 16 2 buffer_5 $end
   $var wire 1 G clock $end
   $var wire 3 S io_BankIO_DataAddr $end
   $var wire 16 b buffer_4 $end
   $var wire 16 j io_BankIO_DataIn $end
   $var wire 16 z buffer_7 $end
   $var wire 16 "/ buffer_1 $end
   $var wire 1 "7 io_BankIO_Enable $end
   $var wire 1 "9 reset $end
   $var wire 16 "X buffer_0 $end
   $var wire 16 "i buffer_3 $end
   $var wire 1 "k io_BankIO_ReadWrite $end
   $var wire 16 "~ io_BankIO_DataOut $end
   $var wire 16 #! buffer_6 $end
  $upscope $end
  $scope module bank15 $end
   $var wire 16 " buffer_5 $end
   $var wire 1 D io_BankIO_ReadWrite $end
   $var wire 16 Z buffer_4 $end
   $var wire 16 a buffer_7 $end
   $var wire 1 k clock $end
   $var wire 16 x buffer_1 $end
   $var wire 16 "R buffer_3 $end
   $var wire 3 "` io_BankIO_DataAddr $end
   $var wire 1 "a reset $end
   $var wire 16 "p buffer_6 $end
   $var wire 16 "t buffer_0 $end
   $var wire 16 #( io_BankIO_DataOut $end
   $var wire 16 #V io_BankIO_DataIn $end
   $var wire 1 #Y io_BankIO_Enable $end
   $var wire 16 #] buffer_2 $end
  $upscope $end
  $scope module bank2 $end
   $var wire 16 = buffer_4 $end
   $var wire 16 M buffer_7 $end
   $var wire 16 ^ buffer_1 $end
   $var wire 1 h reset $end
   $var wire 16 "= buffer_3 $end
   $var wire 16 "D io_BankIO_DataIn $end
   $var wire 16 "G io_BankIO_DataOut $end
   $var wire 16 "J buffer_6 $end
   $var wire 16 "Z buffer_0 $end
   $var wire 1 "w io_BankIO_Enable $end
   $var wire 1 #3 clock $end
   $var wire 16 #J buffer_2 $end
   $var wire 1 #O io_BankIO_ReadWrite $end
   $var wire 16 #S buffer_5 $end
   $var wire 3 #` io_BankIO_DataAddr $end
  $upscope $end
  $scope module bank3 $end
   $var wire 16 ( buffer_1 $end
   $var wire 16 A buffer_4 $end
   $var wire 16 K io_BankIO_DataOut $end
   $var wire 16 d buffer_3 $end
   $var wire 16 | buffer_6 $end
   $var wire 16 "' buffer_0 $end
   $var wire 1 "T clock $end
   $var wire 16 "g buffer_2 $end
   $var wire 16 "v buffer_5 $end
   $var wire 3 #& io_BankIO_DataAddr $end
   $var wire 16 #0 io_BankIO_DataIn $end
   $var wire 1 #N reset $end
   $var wire 1 #f io_BankIO_ReadWrite $end
   $var wire 1 #h io_BankIO_Enable $end
   $var wire 16 #l buffer_7 $end
  $upscope $end
  $scope module bank4 $end
   $var wire 1 + io_BankIO_Enable $end
   $var wire 16 0 io_BankIO_DataIn $end
   $var wire 16 J buffer_6 $end
   $var wire 16 Q buffer_0 $end
   $var wire 1 X clock $end
   $var wire 1 ] io_BankIO_ReadWrite $end
   $var wire 16 e buffer_3 $end
   $var wire 3 "> io_BankIO_DataAddr $end
   $var wire 16 "? buffer_2 $end
   $var wire 16 "L buffer_5 $end
   $var wire 1 "N reset $end
   $var wire 16 #/ buffer_7 $end
   $var wire 16 #G buffer_1 $end
   $var wire 16 #[ buffer_4 $end
   $var wire 16 #a io_BankIO_DataOut $end
  $upscope $end
  $scope module bank10 $end
   $var wire 16 # io_BankIO_DataOut $end
   $var wire 16 * buffer_7 $end
   $var wire 1 5 reset $end
   $var wire 16 7 buffer_1 $end
   $var wire 16 F buffer_4 $end
   $var wire 16 s buffer_3 $end
   $var wire 16 "+ buffer_6 $end
   $var wire 1 "4 io_BankIO_ReadWrite $end
   $var wire 16 "; buffer_0 $end
   $var wire 1 "_ clock $end
   $var wire 16 "} buffer_2 $end
   $var wire 16 #+ buffer_5 $end
   $var wire 3 #< io_BankIO_DataAddr $end
   $var wire 16 #D io_BankIO_DataIn $end
   $var wire 1 #M io_BankIO_Enable $end
  $upscope $end
  $scope module bank5 $end
   $var wire 16 $ buffer_0 $end
   $var wire 16 > buffer_3 $end
   $var wire 3 Y io_BankIO_DataAddr $end
   $var wire 1 g io_BankIO_ReadWrite $end
   $var wire 16 m io_BankIO_DataIn $end
   $var wire 1 p io_BankIO_Enable $end
   $var wire 16 y buffer_5 $end
   $var wire 1 "$ reset $end
   $var wire 16 "A buffer_2 $end
   $var wire 16 "e buffer_1 $end
   $var wire 16 "x buffer_4 $end
   $var wire 16 #* buffer_7 $end
   $var wire 16 #4 io_BankIO_DataOut $end
   $var wire 1 #; clock $end
   $var wire 16 #^ buffer_6 $end
  $upscope $end
  $scope module bank11 $end
   $var wire 1 @ io_BankIO_Enable $end
   $var wire 16 [ buffer_6 $end
   $var wire 16 ` buffer_0 $end
   $var wire 16 "# buffer_3 $end
   $var wire 1 "1 clock $end
   $var wire 16 "O buffer_2 $end
   $var wire 1 "P io_BankIO_ReadWrite $end
   $var wire 16 "S buffer_5 $end
   $var wire 3 "\ io_BankIO_DataAddr $end
   $var wire 1 #' reset $end
   $var wire 16 #I io_BankIO_DataOut $end
   $var wire 16 #L buffer_7 $end
   $var wire 16 #P io_BankIO_DataIn $end
   $var wire 16 #Q buffer_1 $end
   $var wire 16 #i buffer_4 $end
  $upscope $end
  $scope module bank6 $end
   $var wire 16 N buffer_5 $end
   $var wire 16 l buffer_2 $end
   $var wire 1 q io_BankIO_ReadWrite $end
   $var wire 16 w io_BankIO_DataIn $end
   $var wire 16 ") io_BankIO_DataOut $end
   $var wire 1 "H io_BankIO_Enable $end
   $var wire 16 "K buffer_4 $end
   $var wire 16 "c buffer_7 $end
   $var wire 16 "j buffer_1 $end
   $var wire 1 "l clock $end
   $var wire 16 #K buffer_0 $end
   $var wire 16 #\ buffer_3 $end
   $var wire 16 #d buffer_6 $end
   $var wire 1 #g reset $end
   $var wire 3 #j io_BankIO_DataAddr $end
  $upscope $end
  $scope module bank0 $end
   $var wire 16 ) io_BankIO_DataIn $end
   $var wire 16 8 buffer_5 $end
   $var wire 16 < io_BankIO_DataOut $end
   $var wire 1 P io_BankIO_Enable $end
   $var wire 16 T buffer_2 $end
   $var wire 1 u clock $end
   $var wire 3 "6 io_BankIO_DataAddr $end
   $var wire 16 "@ buffer_4 $end
   $var wire 16 "Q buffer_7 $end
   $var wire 1 "V io_BankIO_ReadWrite $end
   $var wire 16 "^ buffer_1 $end
   $var wire 16 #5 buffer_0 $end
   $var wire 1 #8 reset $end
   $var wire 16 #H buffer_3 $end
   $var wire 16 #U buffer_6 $end
  $upscope $end
  $scope module bank12 $end
   $var wire 16 ! buffer_6 $end
   $var wire 1 ' clock $end
   $var wire 16 ; buffer_0 $end
   $var wire 16 E io_BankIO_DataIn $end
   $var wire 16 H buffer_3 $end
   $var wire 1 v io_BankIO_Enable $end
   $var wire 3 { io_BankIO_DataAddr $end
   $var wire 16 "- buffer_5 $end
   $var wire 16 "C buffer_2 $end
   $var wire 1 "F reset $end
   $var wire 16 "n io_BankIO_DataOut $end
   $var wire 16 "{ buffer_1 $end
   $var wire 16 #- buffer_4 $end
   $var wire 1 #2 io_BankIO_ReadWrite $end
   $var wire 16 #9 buffer_7 $end
  $upscope $end
  $scope module bank7 $end
   $var wire 16 4 buffer_2 $end
   $var wire 16 C buffer_5 $end
   $var wire 16 \ io_BankIO_DataOut $end
   $var wire 1 c clock $end
   $var wire 16 } buffer_4 $end
   $var wire 16 "( buffer_7 $end
   $var wire 16 "3 buffer_1 $end
   $var wire 16 "U io_BankIO_DataIn $end
   $var wire 1 "b io_BankIO_ReadWrite $end
   $var wire 16 "s buffer_0 $end
   $var wire 16 "u buffer_3 $end
   $var wire 3 "z io_BankIO_DataAddr $end
   $var wire 16 #) buffer_6 $end
   $var wire 1 #, io_BankIO_Enable $end
   $var wire 1 #6 reset $end
  $upscope $end
  $scope module bank13 $end
   $var wire 16 . buffer_6 $end
   $var wire 3 6 io_BankIO_DataAddr $end
   $var wire 1 L reset $end
   $var wire 16 W buffer_5 $end
   $var wire 16 i io_BankIO_DataOut $end
   $var wire 16 t buffer_2 $end
   $var wire 16 ". io_BankIO_DataIn $end
   $var wire 16 "W buffer_4 $end
   $var wire 1 "] io_BankIO_Enable $end
   $var wire 16 "o buffer_7 $end
   $var wire 16 #$ buffer_1 $end
   $var wire 1 #: io_BankIO_ReadWrite $end
   $var wire 1 #@ clock $end
   $var wire 16 #W buffer_0 $end
   $var wire 16 #k buffer_3 $end
  $upscope $end
  $scope module bank8 $end
   $var wire 1 , io_BankIO_Enable $end
   $var wire 1 9 clock $end
   $var wire 16 U buffer_7 $end
   $var wire 16 n buffer_1 $end
   $var wire 16 "! buffer_4 $end
   $var wire 1 ", reset $end
   $var wire 3 "5 io_BankIO_DataAddr $end
   $var wire 16 "M buffer_3 $end
   $var wire 16 "d buffer_6 $end
   $var wire 1 "h io_BankIO_ReadWrite $end
   $var wire 16 "m buffer_0 $end
   $var wire 16 #C io_BankIO_DataIn $end
   $var wire 16 #E io_BankIO_DataOut $end
   $var wire 16 #Z buffer_2 $end
   $var wire 16 #_ buffer_5 $end
  $upscope $end
  $scope module bank14 $end
   $var wire 16 ? io_BankIO_DataOut $end
   $var wire 16 I buffer_2 $end
   $var wire 16 _ buffer_5 $end
   $var wire 16 "* buffer_4 $end
   $var wire 16 "< buffer_7 $end
   $var wire 1 "B clock $end
   $var wire 16 "I buffer_1 $end
   $var wire 16 "f io_BankIO_DataIn $end
   $var wire 16 "| buffer_0 $end
   $var wire 16 #. buffer_3 $end
   $var wire 3 #= io_BankIO_DataAddr $end
   $var wire 1 #? io_BankIO_Enable $end
   $var wire 16 #A buffer_6 $end
   $var wire 1 #T io_BankIO_ReadWrite $end
   $var wire 1 #b reset $end
  $upscope $end
$upscope $end
$enddefinitions $end
$dumpvars
b0000000000000000 t
0o
0"1
0#c
b0000000000000000 a
0"P
b0000000000000000 "?
b0000000000000000 "*
b0000000000000000 "X
b0000000000000000 #9
b0000000000000000 ";
b0000000000000000 "&
0"r
b0000000000000000 Q
0L
0D
b0000000000000000 4
0/
b0000000000000000 #a
b0000000000000000 #L
b0000000000000000 #/
b000 #&
0#O
b0000000000000000 b
0]
0#2
b0000000000000000 0
0+
0@
b0000000000000000 "|
b0000000000000000 "g
b0000000000000000 #H
b0000000000000000 #]
b0000000000000000 "J
b0000000000000000 #+
b0000000000000000 "-
0#b
0"l
0#M
b0000000000000000 `
0p
b0000000000000000 C
b0000000000000000 .
0"2
b000 Y
b0000000000000000 \
0#,
b0000000000000000 T
b0000000000000000 ?
b0000000000000000 "
b0000000000000000 #l
b0000000000000000 "n
b0000000000000000 "<
b0000000000000000 "'
b0000000000000000 3
b0000000000000000 "j
b0000000000000000 #K
b0000000000000000 "U
b000 S
b000 6
b0000000000000000 N
b0000000000000000 #I
b000 #j
b0000000000000000 |
0"k
b0000000000000000 _
0"N
0"9
b0000000000000000 "(
b0000000000000000 "y
b0000000000000000 #Z
b0000000000000000 "G
b0000000000000000 #(
b000 "6
0"_
0#@
0k
09
b0000000000000000 #k
b0000000000000000 !
b0000000000000000 r
b0000000000000000 "m
b0000000000000000 "C
b0000000000000000 #$
b0000 "[
b0000000000000000 O
0-
b0000000000000000 n
b0000000000000000 "i
b0000000000000000 #J
0"]
0#>
b0000000000000000 <
b0000000000000000 #i
b0000000000000000 j
b0000000000000000 "e
0"Y
0#:
b0000000000000000 M
b0000000000000000 #)
b0000000000000000 "3
b0000000000000000 ^
b0000000000000000 A
0'
b0000000000000000 "x
b0000000000000000 ")
b0000000000000000 =
0",
b0000000000000000 "t
b0000000000000000 #U
b0000000000000000 "W
b0000000000000000 ":
b0000000000000000 "%
b000 #F
b0000000000000000 m
0h
0#R
b0000000000000000 ;
b0000000000000000 "!
b0000000000000000 ~
b0000000000000000 i
0#N
b0000000000000000 7
0G
b0000000000000000 #d
b0000000000000000 "{
b0000000000000000 "f
b0000000000000000 #G
b0000000000000000 "Q
b0000000000000000 #\
b0000000000000000 "I
b0000000000000000 #*
b0000000000000000 H
0X
0"7
0""
b0000000000000000 #C
b0000000000000000 x
b000 ">
b0000000000000000 [
0V
b0000000000000000 >
b0000000000000000 )
b0000000000000000 "u
b0000000000000000 #V
0#Y
b0000000000000000 l
b0000000000000000 W
0g
0"F
0#'
b0000000000000000 :
05
b0000000000000000 %
b0000000000000000 "q
b0000000000000000 #5
b000 #`
b000 R
b0000000000000000 #1
b0000000000000000 *
0#h
b0000000000000000 "v
b0000000000000000 #W
0#6
0v
b0000000000000000 I
b0000000000000000 "D
0"8
b0000000000000000 "c
b0000000000000000 #D
b0000000000000000 w
b0000000000000000 #S
b0000000000000000 Z
b0000000000000000 E
b0000000000000000 "@
0"4
b0000000000000000 #!
b0000000000000000 (
b0000000000000000 "#
0"w
0#X
0f
0#;
0"E
b0000000000000000 "p
b0000000000000000 #Q
b0000000000000000 "S
b0000000000000000 #4
0"V
0#7
b0000000000000000 J
0"$
b0000000000000000 "d
b0000000000000000 "O
b0000000000000000 #0
b0000000000000000 #E
0#g
b0000000000000000 z
0u
0"T
b0000000000000000 ".
b000 {
0q
0"H
b0000000000000000 "s
b0000000000000000 "^
b0000000000000000 "A
0"a
0#B
b0000000000000000 U
0P
0#%
b0000000000000000 8
b0000000000000000 #
b0000000000000000 "o
b0000000000000000 "Z
b0000000000000000 #P
b0000000000000000 "R
b0000000000000000 "=
b000 "`
b0000000000000000 }
0c
0#8
0"B
0##
b0000000000000000 K
01
b000 "\
0#f
b000 #=
b0000000000000000 y
b0000000000000000 d
0"h
b0000000000000000 2
0B
b0000000000000000 "~
b0000000000000000 #_
b0000000000000000 "L
b0000000000000000 #-
b0000000000000000 "/
b0000000000000000 &
b0000000000000000 #[
b0000000000000000 "+
b0000000000000000 s
0"b
0"0
b0000000000000000 $
0#T
0#?
b000 "5
b0000000000000000 "M
b0000000000000000 #.
0#"
b000 #<
0#e
0#3
b0000000000000000 F
b000 "z
0,
b0000000000000000 "}
b0000000000000000 #^
b0000000000000000 e
b0000000000000000 #A
b0000000000000000 "K
$end
#0
1#N
1",
1"$
1#8
15
1h
1L
1"a
1#g
1#R
1V
1"F
1#'
1#6
1"N
1#b
1"9
#1
1u
1#"
1#@
1"_
1X
1"B
1'
1"Y
1#;
1#3
1c
1"T
1k
1G
1"1
19
1"l
#6
0#"
0",
0#@
0"_
0"$
0#8
0"B
05
0h
0"Y
0L
0#;
0#3
0c
0#g
0#R
0"T
0G
0#6
0"N
0#b
0"l
0"9
0#N
0u
0X
0'
0"a
1"E
0k
0V
0"F
0#'
0"1
09
1P
#11
1u
1#"
1#@
1"_
1X
1"B
1'
1"Y
1#;
1#3
1c
1"T
1k
1G
1"1
19
1"l
#16
0#"
b001 #j
0#@
0"_
b001 R
0"B
b001 S
b001 6
0"Y
0#;
0#3
0c
b001 ">
b001 "6
0"T
0G
b001 {
0"l
0u
b001 #F
0X
b001 Y
0'
b001 "5
b001 "`
b0000000000000001 )
b001 #`
b0000000000000001 r
b001 #&
0k
b001 #<
0"1
09
b001 #=
b001 "\
b001 "z
#21
b0000000000000001 "^
1u
1#"
1#@
1"_
1X
1"B
1'
1"Y
1#;
1#3
1c
1"T
1k
1G
1"1
19
1"l
#26
0#"
b010 #j
0#@
0"_
b010 R
0"B
b010 S
b010 6
0"Y
0#;
0#3
0c
b010 ">
b010 "6
0"T
0G
b010 {
0"l
0u
b010 #F
0X
b010 Y
0'
b010 "5
b010 "`
b0000000000000010 )
b010 #`
b0000000000000010 r
b010 #&
0k
b010 #<
0"1
09
b010 #=
b010 "\
b010 "z
#31
1u
1#"
1#@
1"_
1X
1"B
1'
1"Y
1#;
1#3
b0000000000000010 T
1c
1"T
1k
1G
1"1
19
1"l
#36
0#"
b011 #j
0#@
0"_
b011 R
0"B
b011 S
b011 6
0"Y
0#;
0#3
0c
b011 ">
b011 "6
0"T
0G
b011 {
0"l
0u
b011 #F
0X
b011 Y
0'
b011 "5
b011 "`
b0000000000000011 )
b011 #`
b0000000000000011 r
b011 #&
0k
b011 #<
0"1
09
b011 #=
b011 "\
b011 "z
#41
1u
1#"
1#@
1"_
1X
1"B
b0000000000000011 #H
1'
1"Y
1#;
1#3
1c
1"T
1k
1G
1"1
19
1"l
#46
0#"
b100 #j
0#@
0"_
b100 R
0"B
b100 S
b100 6
0"Y
0#;
0#3
0c
b100 ">
b100 "6
0"T
0G
b100 {
0"l
0u
b100 #F
0X
b100 Y
0'
b100 "5
b100 "`
b0000000000000100 )
b100 #`
b0000000000000100 r
b100 #&
0k
b100 #<
0"1
09
b100 #=
b100 "\
b100 "z
#51
1u
1#"
1#@
1"_
1X
1"B
1'
1"Y
1#;
1#3
1c
1"T
1k
1G
1"1
19
1"l
b0000000000000100 "@
#56
0#"
b101 #j
0#@
0"_
b101 R
0"B
b101 S
b101 6
0"Y
0#;
0#3
0c
b101 ">
b101 "6
0"T
0G
b101 {
0"l
0u
b101 #F
0X
b101 Y
0'
b101 "5
b101 "`
b0000000000000101 )
b101 #`
b0000000000000101 r
b101 #&
0k
b101 #<
0"1
09
b101 #=
b101 "\
b101 "z
#61
1u
1#"
1#@
1"_
1X
1"B
1'
1"Y
1#;
1#3
1c
1"T
b0000000000000101 8
1k
1G
1"1
19
1"l
#66
0#"
b110 #j
0#@
0"_
b110 R
0"B
b110 S
b110 6
0"Y
0#;
0#3
0c
b110 ">
b110 "6
0"T
0G
b110 {
0"l
0u
b110 #F
0X
b110 Y
0'
b110 "5
b110 "`
b0000000000000110 )
b110 #`
b0000000000000110 r
b110 #&
0k
b110 #<
0"1
09
b110 #=
b110 "\
b110 "z
#71
1u
1#"
b0000000000000110 #U
1#@
1"_
1X
1"B
1'
1"Y
1#;
1#3
1c
1"T
1k
1G
1"1
19
1"l
#76
0#"
b111 #j
0#@
0"_
b111 R
0"B
b111 S
b111 6
0"Y
0#;
0#3
0c
b111 ">
b111 "6
0"T
0G
b111 {
0"l
0u
b111 #F
0X
b111 Y
0'
b111 "5
b111 "`
b0000000000000111 )
b111 #`
b0000000000000111 r
b111 #&
0k
b111 #<
0"1
09
b111 #=
b111 "\
b111 "z
#81
1u
1#"
1#@
1"_
1X
1"B
b0000000000000111 "Q
1'
1"Y
1#;
1#3
1c
1"T
1k
1G
1"1
19
1"l
#86
0#"
b000 #j
0#@
0"_
b000 R
0"B
b000 S
b000 6
0"Y
b0000000001100100 j
0#;
0#3
0c
b000 ">
b000 "6
0"T
0G
1"7
b000 {
0"l
0u
b000 #F
0X
b000 Y
0'
b000 "5
b000 "`
b0000000000000000 )
b000 #`
b0000000001100100 r
b000 #&
0k
b0001 "[
b000 #<
0"1
09
b000 #=
b000 "\
b000 "z
0P
#91
1u
1#"
1#@
1"_
1X
1"B
b0000000001100100 "X
1'
1"Y
1#;
1#3
1c
1"T
1k
1G
1"1
19
1"l
#96
0#"
b001 #j
0#@
0"_
b001 R
0"B
b001 S
b001 6
0"Y
b0000000001100101 j
0#;
0#3
0c
b001 ">
b001 "6
0"T
0G
b001 {
0"l
0u
b001 #F
0X
b001 Y
0'
b001 "5
b001 "`
b001 #`
b0000000001100101 r
b001 #&
0k
b001 #<
0"1
09
b001 #=
b001 "\
b001 "z
#101
1u
1#"
1#@
1"_
1X
1"B
1'
1"Y
1#;
1#3
1c
b0000000001100101 "/
1"T
1k
1G
1"1
19
1"l
#106
0#"
b010 #j
0#@
0"_
b010 R
0"B
b010 S
b010 6
0"Y
b0000000001100110 j
0#;
0#3
0c
b010 ">
b010 "6
0"T
0G
b010 {
0"l
0u
b010 #F
0X
b010 Y
0'
b010 "5
b010 "`
b010 #`
b0000000001100110 r
b010 #&
0k
b010 #<
0"1
09
b010 #=
b010 "\
b010 "z
#111
1u
1#"
1#@
1"_
1X
b0000000001100110 %
1"B
1'
1"Y
1#;
1#3
1c
1"T
1k
1G
1"1
19
1"l
#116
0#"
b011 #j
0#@
0"_
b011 R
0"B
b011 S
b011 6
0"Y
b0000000001100111 j
0#;
0#3
0c
b011 ">
b011 "6
0"T
0G
b011 {
0"l
0u
b011 #F
0X
b011 Y
0'
b011 "5
b011 "`
b011 #`
b0000000001100111 r
b011 #&
0k
b011 #<
0"1
09
b011 #=
b011 "\
b011 "z
#121
1u
1#"
1#@
1"_
1X
1"B
1'
1"Y
1#;
1#3
1c
b0000000001100111 "i
1"T
1k
1G
1"1
19
1"l
#126
0#"
b100 #j
0#@
0"_
b100 R
0"B
b100 S
b100 6
0"Y
b0000000001101000 j
0#;
0#3
0c
b100 ">
b100 "6
0"T
0G
b100 {
0"l
0u
b100 #F
0X
b100 Y
0'
b100 "5
b100 "`
b100 #`
b0000000001101000 r
b100 #&
0k
b100 #<
0"1
09
b100 #=
b100 "\
b100 "z
#131
1u
1#"
1#@
1"_
1X
1"B
1'
1"Y
1#;
b0000000001101000 b
1#3
1c
1"T
1k
1G
1"1
19
1"l
#136
0#"
b101 #j
0#@
0"_
b101 R
0"B
b101 S
b101 6
0"Y
b0000000001101001 j
0#;
0#3
0c
b101 ">
b101 "6
0"T
0G
b101 {
0"l
0u
b101 #F
0X
b101 Y
0'
b101 "5
b101 "`
b101 #`
b0000000001101001 r
b101 #&
0k
b101 #<
0"1
09
b101 #=
b101 "\
b101 "z
#141
1u
1#"
1#@
1"_
1X
1"B
1'
1"Y
1#;
1#3
1c
1"T
1k
1G
b0000000001101001 2
1"1
19
1"l
#146
0#"
b110 #j
0#@
0"_
b110 R
0"B
b110 S
b110 6
0"Y
b0000000001101010 j
0#;
0#3
0c
b110 ">
b110 "6
0"T
0G
b110 {
0"l
0u
b110 #F
0X
b110 Y
0'
b110 "5
b110 "`
b110 #`
b0000000001101010 r
b110 #&
0k
b110 #<
0"1
09
b110 #=
b110 "\
b110 "z
#151
1u
1#"
1#@
1"_
1X
1"B
1'
1"Y
1#;
1#3
1c
1"T
1k
1G
1"1
19
1"l
b0000000001101010 #!
#156
0#"
b111 #j
0#@
0"_
b111 R
0"B
b111 S
b111 6
0"Y
b0000000001101011 j
0#;
0#3
0c
b111 ">
b111 "6
0"T
0G
b111 {
0"l
0u
b111 #F
0X
b111 Y
0'
b111 "5
b111 "`
b111 #`
b0000000001101011 r
b111 #&
0k
b111 #<
0"1
09
b111 #=
b111 "\
b111 "z
#161
1u
1#"
1#@
1"_
1X
1"B
1'
1"Y
1#;
1#3
1c
1"T
1k
1G
b0000000001101011 z
1"1
19
1"l
#166
0#"
b000 #j
0#@
0"_
b000 R
0"B
b000 S
b000 6
0"Y
b0000000000000000 j
0#;
0#3
0c
b000 ">
b000 "6
0"T
0G
0"7
b000 {
0"l
0u
b000 #F
0X
b000 Y
0'
b000 "5
b000 "`
b000 #`
b0000000011001000 "D
1"w
b0000000011001000 r
b000 #&
0k
b0010 "[
b000 #<
0"1
09
b000 #=
b000 "\
b000 "z
#171
1u
1#"
1#@
1"_
1X
1"B
1'
1"Y
1#;
b0000000011001000 "Z
1#3
1c
1"T
1k
1G
1"1
19
1"l
#176
0#"
b001 #j
0#@
0"_
b001 R
0"B
b001 S
b001 6
0"Y
0#;
0#3
0c
b001 ">
b001 "6
0"T
0G
b001 {
0"l
0u
b001 #F
0X
b001 Y
0'
b001 "5
b001 "`
b001 #`
b0000000011001001 "D
b0000000011001001 r
b001 #&
0k
b001 #<
0"1
09
b001 #=
b001 "\
b001 "z
#181
1u
1#"
1#@
1"_
1X
1"B
1'
1"Y
1#;
1#3
1c
1"T
1k
1G
1"1
19
b0000000011001001 ^
1"l
#186
0#"
b010 #j
0#@
0"_
b010 R
0"B
b010 S
b010 6
0"Y
0#;
0#3
0c
b010 ">
b010 "6
0"T
0G
b010 {
0"l
0u
b010 #F
0X
b010 Y
0'
b010 "5
b010 "`
b010 #`
b0000000011001010 "D
b0000000011001010 r
b010 #&
0k
b010 #<
0"1
09
b010 #=
b010 "\
b010 "z
#191
1u
1#"
1#@
1"_
1X
1"B
1'
1"Y
1#;
1#3
1c
b0000000011001010 #J
1"T
1k
1G
1"1
19
1"l
#196
0#"
b011 #j
0#@
0"_
b011 R
0"B
b011 S
b011 6
0"Y
0#;
0#3
0c
b011 ">
b011 "6
0"T
0G
b011 {
0"l
0u
b011 #F
0X
b011 Y
0'
b011 "5
b011 "`
b011 #`
b0000000011001011 "D
b0000000011001011 r
b011 #&
0k
b011 #<
0"1
09
b011 #=
b011 "\
b011 "z
#201
1u
1#"
1#@
1"_
1X
1"B
1'
1"Y
1#;
1#3
b0000000011001011 "=
1c
1"T
1k
1G
1"1
19
1"l
#206
0#"
b100 #j
0#@
0"_
b100 R
0"B
b100 S
b100 6
0"Y
0#;
0#3
0c
b100 ">
b100 "6
0"T
0G
b100 {
0"l
0u
b100 #F
0X
b100 Y
0'
b100 "5
b100 "`
b100 #`
b0000000011001100 "D
b0000000011001100 r
b100 #&
0k
b100 #<
0"1
09
b100 #=
b100 "\
b100 "z
#211
1u
1#"
1#@
1"_
1X
1"B
1'
1"Y
b0000000011001100 =
1#;
1#3
1c
1"T
1k
1G
1"1
19
1"l
#216
0#"
b101 #j
0#@
0"_
b101 R
0"B
b101 S
b101 6
0"Y
0#;
0#3
0c
b101 ">
b101 "6
0"T
0G
b101 {
0"l
0u
b101 #F
0X
b101 Y
0'
b101 "5
b101 "`
b101 #`
b0000000011001101 "D
b0000000011001101 r
b101 #&
0k
b101 #<
0"1
09
b101 #=
b101 "\
b101 "z
#221
1u
1#"
1#@
1"_
1X
1"B
1'
1"Y
1#;
1#3
1c
1"T
1k
1G
1"1
19
b0000000011001101 #S
1"l
#226
0#"
b110 #j
0#@
0"_
b110 R
0"B
b110 S
b110 6
0"Y
0#;
0#3
0c
b110 ">
b110 "6
0"T
0G
b110 {
0"l
0u
b110 #F
0X
b110 Y
0'
b110 "5
b110 "`
b110 #`
b0000000011001110 "D
b0000000011001110 r
b110 #&
0k
b110 #<
0"1
09
b110 #=
b110 "\
b110 "z
#231
1u
1#"
1#@
1"_
1X
1"B
1'
b0000000011001110 "J
1"Y
1#;
1#3
1c
1"T
1k
1G
1"1
19
1"l
#236
0#"
b111 #j
0#@
0"_
b111 R
0"B
b111 S
b111 6
0"Y
0#;
0#3
0c
b111 ">
b111 "6
0"T
0G
b111 {
0"l
0u
b111 #F
0X
b111 Y
0'
b111 "5
b111 "`
b111 #`
b0000000011001111 "D
b0000000011001111 r
b111 #&
0k
b111 #<
0"1
09
b111 #=
b111 "\
b111 "z
#241
1u
1#"
1#@
1"_
1X
1"B
1'
1"Y
1#;
1#3
b0000000011001111 M
1c
1"T
1k
1G
1"1
19
1"l
#246
b000 #j
b0000000000000000 <
0#@
0"_
0"B
b0000000000000000 "%
b000 S
b000 6
1#O
0"Y
1#:
1#f
b000 ">
b000 "6
0G
b000 {
0"l
0u
0X
1#2
1"4
1"h
b000 "`
1q
b000 #`
1#X
1"b
0"w
b000 #&
0k
09
b000 #=
b0000000000000000 "G
b000 "\
1P
1#T
0#"
1g
b000 R
0#;
0#3
0c
0"T
1]
1"k
1"V
b000 #F
1"P
b000 Y
1D
0'
b000 "5
1#B
b0000000000000000 "D
b0000 "[
b000 #<
0"1
b000 "z
#251
1u
1#"
1#@
1"_
1X
1"B
1'
1"Y
1#;
1#3
1c
1"T
1k
1G
1"1
19
1"l
#256
0#"
b001 #j
0#@
0"_
b0000000000000001 <
b001 R
0"B
b0000000000000001 "%
b001 S
b001 6
0"Y
0#;
0#3
0c
b001 ">
b001 "6
0"T
0G
b001 {
0"l
0u
b001 #F
0X
b001 Y
0'
b001 "5
b001 "`
b001 #`
b001 #&
0k
b001 #<
0"1
09
b001 #=
b001 "\
b001 "z
#261
1u
1#"
1#@
1"_
1X
1"B
1'
1"Y
1#;
1#3
1c
1"T
1k
1G
1"1
19
1"l
#266
0#"
b010 #j
0#@
0"_
b0000000000000010 <
b010 R
0"B
b0000000000000010 "%
b010 S
b010 6
0"Y
0#;
0#3
0c
b010 ">
b010 "6
0"T
0G
b010 {
0"l
0u
b010 #F
0X
b010 Y
0'
b010 "5
b010 "`
b010 #`
b010 #&
0k
b010 #<
0"1
09
b010 #=
b010 "\
b010 "z
