test_run_dir/should_test_SRAM/SRAM.vcd
$date
2022-02-21T04:15+0000
$end
$version
0.2
$end
$comment

$end
$timescale 1ns  $end
$scope module SRAM $end
 $var wire 12 " io_addr $end
 $var wire 16 # mem $end
 $var wire 16 $ io_DataOut $end
 $var wire 1 % clock $end
 $var wire 1 ( reset $end
  $scope module mem $end
    $scope module io_DataOut_MPORT $end
     $var wire 16 ! data $end
     $var wire 12 & addr $end
     $var wire 1 ' clk $end
     $var wire 1 ) en $end
    $upscope $end
  $upscope $end
$upscope $end
$enddefinitions $end
$dumpvars
0%
b000000000000 &
b0000000000000000 $
0'
1)
b0000000000000000 !
b0000000000000001 #
b000000000000 "
0(
$end
#0
b0000000000000001 !
b0000000000000001 $
1(
#1
1%
1'
#6
0%
0'
0(
#11
1%
1'
#16
0%
b000000000001 "
b000000000001 &
0'
#21
1%
1'
#26
b0000000000000000 !
0%
b000000000010 "
b000000000010 &
0'
b0000000000000000 $
#31
1%
1'
#36
b0000000000000001 !
0%
b000000000011 "
b000000000011 &
0'
b0000000000000001 $
#41
1%
1'
#46
b0000000000000000 !
0%
b000000000100 "
b000000000100 &
0'
b0000000000000000 $
#51
1%
1'
#56
0%
b000000000101 "
b000000000101 &
0'
#61
1%
1'
#66
0%
b000000000110 "
b000000000110 &
0'
#71
1%
1'
#76
0%
b000000000111 "
b000000000111 &
0'
#81
1%
1'
#86
b0000000000000001 !
0%
b000000001000 "
b000000001000 &
0'
b0000000000000001 $
#91
1%
1'
#96
b0000000000000000 !
0%
b000000001001 "
b000000001001 &
0'
b0000000000000000 $
#101
1%
1'
#106
0%
b000000001010 "
b000000001010 &
0'
#111
1%
1'
#116
b0000000000000001 !
0%
b000000001011 "
b000000001011 &
0'
b0000000000000001 $
#121
1%
1'
#126
b0000000000000000 !
0%
b000000001100 "
b000000001100 &
0'
b0000000000000000 $
#131
1%
1'
#136
b0000000000000001 !
0%
b000000001101 "
b000000001101 &
0'
b0000000000000001 $
#141
1%
1'
#146
0%
b000000001110 "
b000000001110 &
0'
#151
1%
1'
#156
0%
b000000001111 "
b000000001111 &
0'
#161
1%
1'
#166
0%
b000000010000 "
b000000010000 &
0'
#171
1%
1'
#176
b0000000000000000 !
0%
b000000010001 "
b000000010001 &
0'
b0000000000000000 $
#181
1%
1'
#186
0%
b000000010010 "
b000000010010 &
0'
#191
1%
1'
#196
0%
b000000010011 "
b000000010011 &
0'
#201
1%
1'
#206
0%
b000000010100 "
b000000010100 &
0'
#211
1%
1'
#216
0%
b000000010101 "
b000000010101 &
0'
#221
1%
1'
#226
b0000000000000001 !
0%
b000000010110 "
b000000010110 &
0'
b0000000000000001 $
#231
1%
1'
#236
0%
b000000010111 "
b000000010111 &
0'
#241
1%
1'
#246
b0000000000000000 !
0%
b000000011000 "
b000000011000 &
0'
b0000000000000000 $
#251
1%
1'
#256
b0000000000000001 !
0%
b000000011001 "
b000000011001 &
0'
b0000000000000001 $
#261
1%
1'
#266
0%
b000000011010 "
b000000011010 &
0'
#271
1%
1'
#276
0%
b000000000000 "
