test_run_dir/should_test_load2_mode/PE.vcd
$date
2022-02-19T09:33+0000
$end
$version
0.2
$end
$comment

$end
$timescale 1ns  $end
$scope module PE $end
 $var wire 10 ' io_NeuronAddr $end
 $var wire 1 0 io_NeuronBufRW $end
 $var wire 3 > io_Mode $end
 $var wire 1 E io_KernelBufEn $end
 $var wire 7 X io_ScheduleSize $end
 $var wire 24 "? io_Schedule $end
 $var wire 4 "I io_KernelBankIdx $end
 $var wire 1 "K neuronintra $end
 $var wire 1 "b io_Enable $end
 $var wire 1 "m kernelintra $end
 $var wire 16 ## io_DataOut $end
 $var wire 1 #( clock $end
 $var wire 16 #I io_NeuronDataIn $end
 $var wire 1 #W PECtrl $end
 $var wire 16 #k io_KernelDataIn $end
 $var wire 1 $0 reset $end
 $var wire 1 $E io_NeuronBufEn $end
 $var wire 4 $S io_NeuronBankIdx $end
 $var wire 10 $Y io_KernelAddr $end
 $var wire 1 $Z io_KernelBufRW $end
  $scope module PECtrl $end
   $var wire 4 4 cntHoldBase_REG $end
   $var wire 2 @ stateReg $end
   $var wire 1 H io_NeuronBufRW $end
   $var wire 7 P io_ScheduleSize $end
   $var wire 1 Y io_KernelBufEn $end
   $var wire 1 [ io_MacEnable $end
   $var wire 1 ^ reset $end
   $var wire 1 e io_NeuronBufEn $end
   $var wire 4 o Tn $end
   $var wire 1 p io_KernelBufRW $end
   $var wire 7 w cntKBufAddr $end
   $var wire 24 x io_Schedule $end
   $var wire 9 "" tc $end
   $var wire 1 "$ io_KernelIntraRW $end
   $var wire 1 "( KernelReadDone $end
   $var wire 4 "1 HoldBoundary $end
   $var wire 7 "5 NeuronSlotPtr $end
   $var wire 7 "; io_KernelIntraAddr $end
   $var wire 7 "= NeuronBoundary $end
   $var wire 1 "G cntMac $end
   $var wire 7 "J MacCycle $end
   $var wire 10 "S io_KernelAddr $end
   $var wire 10 "[ io_NeuronAddr $end
   $var wire 7 "e MacCycle_result $end
   $var wire 1 "k cntKBufBank $end
   $var wire 4 "l Tj $end
   $var wire 4 "p io_KernelBankIdx $end
   $var wire 1 "q tn $end
   $var wire 8 "| KernelBoundary_result $end
   $var wire 7 "~ cntNBufAddr $end
   $var wire 1 #" cntHoldBase_REG_1 $end
   $var wire 4 #& Tm $end
   $var wire 4 #) cntHold $end
   $var wire 8 #? KernelBoundary $end
   $var wire 3 #D io_Mode $end
   $var wire 1 #J Load2 $end
   $var wire 1 #R cntNBufBank $end
   $var wire 1 #X clock $end
   $var wire 4 #` cntHoldBase $end
   $var wire 7 #d io_NeuronIntraAddr $end
   $var wire 1 #q macDone $end
   $var wire 1 $# io_NeuronIntraRW $end
   $var wire 9 $* tj $end
   $var wire 1 $+ Load2Done $end
   $var wire 4 $- Ti $end
   $var wire 1 $1 tm $end
   $var wire 4 $< Tr $end
   $var wire 4 $B io_NeuronBankIdx $end
   $var wire 4 $F Tc $end
   $var wire 1 $J NeuronReadDone $end
   $var wire 7 $U KernelSlotPtr $end
  $upscope $end
  $scope module kernelintra $end
   $var wire 16 " buffer_98 $end
   $var wire 16 # buffer_114 $end
   $var wire 16 $ buffer_108 $end
   $var wire 16 % buffer_21 $end
   $var wire 16 & buffer_15 $end
   $var wire 16 ) buffer_83 $end
   $var wire 16 * buffer_120 $end
   $var wire 16 / buffer_1 $end
   $var wire 16 1 buffer_77 $end
   $var wire 16 3 io_BankIO_DataOut $end
   $var wire 16 8 buffer_71 $end
   $var wire 16 9 buffer_65 $end
   $var wire 16 : buffer_59 $end
   $var wire 16 ; buffer_86 $end
   $var wire 16 < buffer_123 $end
   $var wire 16 = buffer_117 $end
   $var wire 16 B buffer_102 $end
   $var wire 16 D buffer_92 $end
   $var wire 16 G buffer_50 $end
   $var wire 16 K buffer_80 $end
   $var wire 16 L buffer_89 $end
   $var wire 16 N buffer_47 $end
   $var wire 16 Q buffer_74 $end
   $var wire 16 S buffer_32 $end
   $var wire 16 T buffer_68 $end
   $var wire 1 V io_BankIO_ReadWrite $end
   $var wire 16 W buffer_53 $end
   $var wire 16 \ buffer_105 $end
   $var wire 16 a buffer_41 $end
   $var wire 16 b buffer_56 $end
   $var wire 16 d buffer_14 $end
   $var wire 16 h buffer_62 $end
   $var wire 16 i buffer_0 $end
   $var wire 16 j buffer_9 $end
   $var wire 16 l buffer_20 $end
   $var wire 16 m buffer_35 $end
   $var wire 16 n buffer_29 $end
   $var wire 16 t buffer_116 $end
   $var wire 16 v buffer_44 $end
   $var wire 16 y buffer_17 $end
   $var wire 16 ~ buffer_122 $end
   $var wire 16 "& buffer_3 $end
   $var wire 16 "* buffer_23 $end
   $var wire 16 "+ buffer_38 $end
   $var wire 16 ", io_BankIO_DataIn $end
   $var wire 16 "- buffer_125 $end
   $var wire 16 "/ buffer_6 $end
   $var wire 16 "0 buffer_110 $end
   $var wire 16 "2 buffer_119 $end
   $var wire 16 "4 buffer_26 $end
   $var wire 16 "8 buffer_94 $end
   $var wire 16 "9 buffer_88 $end
   $var wire 16 ": buffer_11 $end
   $var wire 1 "B clock $end
   $var wire 16 "C buffer_104 $end
   $var wire 16 "H buffer_76 $end
   $var wire 16 "M buffer_82 $end
   $var wire 16 "N buffer_113 $end
   $var wire 16 "O buffer_107 $end
   $var wire 16 "Q buffer_97 $end
   $var wire 16 "U buffer_61 $end
   $var wire 16 "Y buffer_64 $end
   $var wire 16 "Z buffer_85 $end
   $var wire 16 "\ buffer_101 $end
   $var wire 16 "^ buffer_58 $end
   $var wire 16 "` buffer_70 $end
   $var wire 16 "c buffer_43 $end
   $var wire 16 "d buffer_91 $end
   $var wire 16 "i buffer_79 $end
   $var wire 1 "n io_BankIO_Enable $end
   $var wire 16 "o buffer_73 $end
   $var wire 16 "t buffer_52 $end
   $var wire 16 "u buffer_46 $end
   $var wire 16 "w buffer_67 $end
   $var wire 16 "{ buffer_31 $end
   $var wire 16 #! buffer_25 $end
   $var wire 16 #' buffer_13 $end
   $var wire 16 #, buffer_8 $end
   $var wire 16 #. buffer_28 $end
   $var wire 16 #/ buffer_55 $end
   $var wire 16 #1 buffer_49 $end
   $var wire 16 #4 buffer_127 $end
   $var wire 16 #7 buffer_40 $end
   $var wire 16 #8 buffer_34 $end
   $var wire 16 #9 buffer_100 $end
   $var wire 16 #: buffer_16 $end
   $var wire 16 #; buffer_2 $end
   $var wire 16 #< buffer_115 $end
   $var wire 16 #A buffer_99 $end
   $var wire 16 #C buffer_22 $end
   $var wire 16 #F buffer_90 $end
   $var wire 16 #G buffer_84 $end
   $var wire 16 #L buffer_121 $end
   $var wire 16 #N buffer_37 $end
   $var wire 16 #O buffer_109 $end
   $var wire 16 #S buffer_118 $end
   $var wire 16 #V buffer_103 $end
   $var wire 16 #Y buffer_10 $end
   $var wire 16 #Z buffer_19 $end
   $var wire 16 #] buffer_87 $end
   $var wire 16 #^ buffer_5 $end
   $var wire 16 #_ buffer_124 $end
   $var wire 16 #b buffer_93 $end
   $var wire 16 #c buffer_66 $end
   $var wire 16 #f buffer_72 $end
   $var wire 16 #h buffer_60 $end
   $var wire 16 #i buffer_96 $end
   $var wire 16 #j buffer_69 $end
   $var wire 16 #l buffer_54 $end
   $var wire 16 #n buffer_81 $end
   $var wire 16 #o buffer_112 $end
   $var wire 16 #p buffer_48 $end
   $var wire 16 #s buffer_106 $end
   $var wire 16 #v buffer_75 $end
   $var wire 16 #z buffer_78 $end
   $var wire 16 #{ buffer_42 $end
   $var wire 16 $! buffer_63 $end
   $var wire 16 $" buffer_57 $end
   $var wire 1 $' reset $end
   $var wire 16 $) buffer_36 $end
   $var wire 16 $, buffer_30 $end
   $var wire 16 $/ buffer_18 $end
   $var wire 7 $4 io_BankIO_DataAddr $end
   $var wire 16 $8 buffer_4 $end
   $var wire 16 $; buffer_24 $end
   $var wire 16 $= buffer_51 $end
   $var wire 16 $@ buffer_45 $end
   $var wire 16 $A buffer_39 $end
   $var wire 16 $I buffer_12 $end
   $var wire 16 $L buffer_7 $end
   $var wire 16 $N buffer_111 $end
   $var wire 16 $Q buffer_27 $end
   $var wire 16 $R buffer_95 $end
   $var wire 16 $V buffer_126 $end
   $var wire 16 $X buffer_33 $end
  $upscope $end
  $scope module neuronintra $end
   $var wire 16 ! buffer_2 $end
   $var wire 16 ( buffer_74 $end
   $var wire 16 + buffer_12 $end
   $var wire 16 , buffer_80 $end
   $var wire 16 - buffer_95 $end
   $var wire 16 . buffer_89 $end
   $var wire 16 2 buffer_103 $end
   $var wire 16 5 buffer_68 $end
   $var wire 16 6 buffer_56 $end
   $var wire 16 7 buffer_77 $end
   $var wire 16 ? buffer_83 $end
   $var wire 1 A io_BankIO_ReadWrite $end
   $var wire 16 C buffer_98 $end
   $var wire 16 F buffer_62 $end
   $var wire 16 I io_BankIO_DataIn $end
   $var wire 16 J buffer_65 $end
   $var wire 16 M buffer_59 $end
   $var wire 16 O buffer_50 $end
   $var wire 16 R buffer_44 $end
   $var wire 16 U buffer_71 $end
   $var wire 16 Z buffer_120 $end
   $var wire 16 ] buffer_38 $end
   $var wire 16 _ buffer_117 $end
   $var wire 16 ` buffer_32 $end
   $var wire 16 c buffer_102 $end
   $var wire 16 f buffer_53 $end
   $var wire 16 g buffer_47 $end
   $var wire 16 k buffer_11 $end
   $var wire 16 q buffer_123 $end
   $var wire 16 r buffer_26 $end
   $var wire 7 s io_BankIO_DataAddr $end
   $var wire 16 u buffer_35 $end
   $var wire 16 z buffer_41 $end
   $var wire 16 { buffer_111 $end
   $var wire 16 | buffer_105 $end
   $var wire 16 } buffer_126 $end
   $var wire 16 "! buffer_20 $end
   $var wire 16 "# buffer_29 $end
   $var wire 16 "% buffer_97 $end
   $var wire 16 "' buffer_4 $end
   $var wire 16 ") buffer_14 $end
   $var wire 16 ". buffer_85 $end
   $var wire 16 "3 buffer_17 $end
   $var wire 16 "6 buffer_70 $end
   $var wire 16 "7 buffer_79 $end
   $var wire 16 "< buffer_91 $end
   $var wire 16 "> buffer_114 $end
   $var wire 16 "@ buffer_7 $end
   $var wire 16 "A buffer_108 $end
   $var wire 1 "D io_BankIO_Enable $end
   $var wire 16 "E buffer_23 $end
   $var wire 16 "F buffer_1 $end
   $var wire 16 "L buffer_88 $end
   $var wire 16 "P buffer_73 $end
   $var wire 1 "R clock $end
   $var wire 16 "T buffer_67 $end
   $var wire 16 "V buffer_94 $end
   $var wire 16 "W buffer_52 $end
   $var wire 16 "X buffer_76 $end
   $var wire 16 "] buffer_34 $end
   $var wire 16 "_ buffer_61 $end
   $var wire 16 "a buffer_49 $end
   $var wire 16 "f buffer_40 $end
   $var wire 16 "g buffer_55 $end
   $var wire 16 "h io_BankIO_DataOut $end
   $var wire 16 "j buffer_82 $end
   $var wire 16 "r buffer_43 $end
   $var wire 16 "s buffer_37 $end
   $var wire 16 "v buffer_58 $end
   $var wire 16 "x buffer_113 $end
   $var wire 16 "y buffer_22 $end
   $var wire 16 "z buffer_16 $end
   $var wire 16 "} buffer_64 $end
   $var wire 16 #$ buffer_31 $end
   $var wire 16 #% buffer_101 $end
   $var wire 16 #* buffer_46 $end
   $var wire 16 #+ buffer_116 $end
   $var wire 16 #- buffer_19 $end
   $var wire 16 #0 buffer_25 $end
   $var wire 16 #2 buffer_122 $end
   $var wire 16 #3 buffer_0 $end
   $var wire 16 #5 buffer_10 $end
   $var wire 16 #6 buffer_9 $end
   $var wire 16 #= buffer_119 $end
   $var wire 16 #> buffer_13 $end
   $var wire 16 #@ buffer_81 $end
   $var wire 16 #B buffer_104 $end
   $var wire 16 #E buffer_96 $end
   $var wire 16 #H buffer_110 $end
   $var wire 16 #K buffer_125 $end
   $var wire 16 #M buffer_3 $end
   $var wire 16 #P buffer_28 $end
   $var wire 16 #Q buffer_6 $end
   $var wire 16 #T buffer_78 $end
   $var wire 16 #U buffer_107 $end
   $var wire 16 #[ buffer_90 $end
   $var wire 16 #\ buffer_99 $end
   $var wire 16 #a buffer_84 $end
   $var wire 16 #e buffer_63 $end
   $var wire 16 #g buffer_72 $end
   $var wire 16 #m buffer_66 $end
   $var wire 16 #r buffer_45 $end
   $var wire 16 #t buffer_93 $end
   $var wire 16 #u buffer_51 $end
   $var wire 16 #w buffer_87 $end
   $var wire 16 #x buffer_60 $end
   $var wire 16 #y buffer_69 $end
   $var wire 16 #| buffer_75 $end
   $var wire 16 #} buffer_33 $end
   $var wire 16 #~ buffer_48 $end
   $var wire 16 $$ buffer_54 $end
   $var wire 16 $% buffer_124 $end
   $var wire 16 $& buffer_118 $end
   $var wire 16 $( buffer_27 $end
   $var wire 16 $. buffer_106 $end
   $var wire 16 $2 buffer_57 $end
   $var wire 16 $3 buffer_15 $end
   $var wire 1 $5 reset $end
   $var wire 16 $6 buffer_42 $end
   $var wire 16 $7 buffer_112 $end
   $var wire 16 $9 buffer_5 $end
   $var wire 16 $: buffer_36 $end
   $var wire 16 $> buffer_127 $end
   $var wire 16 $? buffer_21 $end
   $var wire 16 $C buffer_30 $end
   $var wire 16 $D buffer_24 $end
   $var wire 16 $G buffer_92 $end
   $var wire 16 $H buffer_18 $end
   $var wire 16 $K buffer_86 $end
   $var wire 16 $M buffer_100 $end
   $var wire 16 $O buffer_115 $end
   $var wire 16 $P buffer_109 $end
   $var wire 16 $T buffer_121 $end
   $var wire 16 $W buffer_8 $end
   $var wire 16 $[ buffer_39 $end
  $upscope $end
$upscope $end
$enddefinitions $end
$dumpvars
b0000000000000000 #A
b0000000000000000 $"
b0000 $B
b0000000000000000 t
b0000000000000000 B
b0000 "1
b0000000000000000 #o
b0000000000000000 $P
b0000000000000000 a
b0000000000000000 "\
b0000000000000000 #=
b0000000000000000 "*
b0000000000 "S
0#W
b0000000000000000 "X
b0000000000000000 #9
b0000000000000000 "&
b0000000 X
b000000000 ""
b0000000000000000 f
b0000000000000000 Q
b0000000000000000 #~
b0000000000000000 #a
b0000000000000000 #L
b0000000000000000 "N
b0000000000000000 #/
b0000000000000000 "9
0"n
0$0
b0000000000000000 b
0H
b0000000000000000 #z
b0000000000000000 $[
b0000000000000000 #]
b0000000000000000 "g
b0000000000000000 #H
b0000000000000000 $)
b0000000000000000 "_
b0000000000000000 #@
b0000000000000000 $!
b0000000 "e
b0000000000000000 #+
b0000000000000000 "-
b0000000000000000 $>
b0000 #`
b0000000000000000 u
b0000000000000000 `
0p
b0000000000000000 C
b0000000000000000 .
b0000000000000000 q
b0000000000000000 \
0"K
b0000000000000000 T
b0000000000000000 ?
b0000000000000000 "
b0000000000000000 #l
b0000000000000000 $M
b0000000000000000 #O
b0000000000000000 "Y
b0000000000000000 #:
b0000000000000000 "<
b0000000000000000 "'
b0000000000000000 #}
b0000000000000000 #h
b0000000000000000 $I
b0000000000000000 3
b0000000000000000 "j
b0000000000000000 #K
b0000000000000000 $,
b0000000000000000 "U
b0000000000000000 #6
b0000000000000000 "8
b000 #D
0$1
b0000000000000000 c
b0000000000000000 N
b0000000000000000 1
b0000000000000000 #{
b0000000000000000 "h
b0000000000000000 #I
b0000000 #d
b0000000000000000 |
0"k
b0000000000000000 _
b0000000000000000 #w
b0000000000000000 $X
b0000000000000000 -
b0000000000000000 "y
b0000000000000000 #Z
b0000000000000000 $;
b0000 $S
b0000000000000000 #k
b0000000000000000 $L
b0000000000000000 !
b0000000000000000 r
b0000000000000000 #N
b0000000000000000 $/
b0000000000000000 "C
b0000000000000000 #$
b0000 "p
b0000000000000000 O
b0000000000000000 #|
b0000000000000000 n
b0000000000000000 "i
b0000000000000000 <
b0000000000000000 "7
b0000000000000000 #i
b0000000000000000 j
b0000000000000000 #F
b0000000000000000 M
b0000000000000000 "H
b0000000000000000 "3
b0000 o
b000000000000000000000000 "?
0Y
b0000000000000000 ,
b0000000000000000 "x
b0000000000000000 #Y
b0000000000000000 $:
b0000000 $U
b0000000000000000 #<
b0000000000000000 "F
b0000000000000000 #'
b0000000000000000 ")
b0000 "I
b0000000000000000 =
b0000000000000000 #j
b0000000000000000 "t
b0000000000000000 #U
b0000000000000000 $6
b0000000000000000 $K
b0000000000000000 "W
b0000000000000000 ##
b0000000000000000 #8
b0000000 $4
b0000000000000000 ":
b0000000000000000 "%
b0000000000000000 m
0"q
0#R
0"G
0#(
b0000000000000000 ;
b0000000000000000 "6
b0000000000000000 "!
b0000 $-
b0000000000000000 ~
b0000000000000000 i
0"m
b0000000000000000 L
b0000000000000000 7
b0000000000000000 #y
b0000000000000000 /
b0000000000000000 "{
b0000000000000000 "f
b0000000000000000 #G
b0000000000000000 $(
b0000000000000000 "Q
b0000000000000000 #*
b0000000000000000 "4
b0000000000000000 #2
b0000000000000000 #\
b0000000000000000 $=
b0000000000 "[
b0000000000000000 ]
b0000000000000000 +
b0000000000000000 #u
b0000000000000000 $A
b0000000000000000 $V
b0000000000000000 "w
b0000000000000000 $9
b0000000000000000 #C
b0000000000000000 $$
b0000000000000000 "E
b0000000 w
b0000000000000000 "0
b0000 $<
b00000000 #?
b0000 #)
0V
b0000000000000000 )
b0000000000000000 "u
b0000000000000000 #V
b0000000000000000 $7
b0000000000000000 l
b0000000000000000 W
b0000000000000000 :
b0000000000000000 %
b0000000000000000 #g
b0000000000000000 $H
b0000000000000000 $3
b0000000000000000 "T
b0000000000000000 #5
b0000000 "=
b000000000000000000000000 x
b0000 "l
0[
b0000000000000000 #x
b0000000000000000 "P
b0000000000000000 #1
b0000000 P
b0000000000000000 *
b0000000000000000 {
b0000000000000000 "v
b0000000000000000 $8
b0000000000000000 I
b0000000000000000 #%
b0000000000000000 #v
b0000000000000000 $W
b0000000000000000 "c
b0000000000000000 $%
b0000000 "~
0$Z
0$E
b0000000000 '
b0000000000000000 "r
b0000000000000000 #S
b0000000000000000 Z
b0000000000000000 "@
b0000000000000000 #!
b0000000000000000 #r
b0000000000000000 "#
b0000000000000000 (
b000 >
0#X
b0000000000000000 k
b0000 #&
b0000000000000000 9
0"(
b0000000000000000 #f
b0000000000000000 #Q
b0000000000000000 $2
b0000000000000000 $G
b0000000000000000 #4
b0000000000000000 ">
b0000000000 $Y
0$J
b0000000000000000 g
b0000000000000000 J
0E
00
0"$
b0000000000000000 5
b0000000000000000 #b
b0000000000000000 $C
b0000000000000000 "d
b0000000000000000 "O
b0000000000000000 #0
b0000000000000000 #E
b0000000000000000 $&
b0000000000000000 "2
b0000000000000000 z
0#J
0$+
b0000000000000000 ".
b0000000000000000 v
0$'
b0000000000000000 D
b0000000000000000 $R
b00 @
b0000000000000000 "s
b0000000000000000 #T
b0000000000000000 "^
b0000000000000000 "V
b0000000 s
b0000000000000000 "A
b0000000000000000 ",
b0000000000000000 #7
0$#
0e
b0000000000000000 U
0"D
b0000 4
b0000000000000000 8
b0000000000000000 #
b0000000000000000 #m
b0000000000000000 $N
b0000000000000000 #e
b0000000000000000 "o
b0000000000000000 "Z
b0000000000000000 #;
b0000000000000000 #P
b0000000000000000 #3
b0000000 ";
b0000000000000000 }
b0000000000000000 h
b0000000000000000 S
0"B
b0000000000000000 K
b0000000000000000 6
b0000000000000000 #c
b0000000000000000 $D
b00000000 "|
b0000000000000000 y
b0000000000000000 d
b0000000000000000 G
b0000000000000000 2
b0000000000000000 #t
b0000000000000000 #_
b0000000000000000 $@
b0000000000000000 "a
b0000000000000000 "L
b0000000000000000 #-
b0000000000000000 #B
b0000000000000000 "/
b0000000 "J
b0000000 "5
b0000000000000000 &
b0000000000000000 #p
b0000000000000000 $Q
b0000000000000000 "z
b0000000000000000 #[
b0000000000000000 "]
b0000000000000000 #>
b0000000000000000 "+
0"b
b0000000000000000 $
b0000000000000000 #n
b0000000000000000 $O
0#q
0$5
b0000000000000000 R
b0000000000000000 "M
b0000000000000000 #.
0#"
b0000000000000000 #M
b0000000000000000 $.
b000000000 $*
b0000 $F
0^
0"R
b0000000000000000 F
0A
b0000000000000000 #s
b0000000000000000 $T
b0000000000000000 "}
b0000000000000000 #^
b0000000000000000 $?
b0000000000000000 "`
b0000000000000000 #,
$end
#0
b00000010 #?
b1111111 "e
1$'
b0001 $F
b00000001 "|
b0001 o
1$0
b0001 #&
b0001 "1
b0001 $-
b0001 $<
1^
b0001 "l
1$5
#1
1#X
b01 @
1"B
1#(
1"R
#6
b00000101 #?
b0000000000000001 ",
0"B
b0000000000000001 #k
0$0
1"n
0"R
b0000111 "=
1#J
b111100110000001100000000 "?
0^
b0000000000000001 I
b0100 "l
0$'
b0000011 "e
b0000111 X
b00000100 "|
b0100 o
b0000100 "J
b111100110000001100000000 x
b0000000000000001 #I
b010 >
1"D
0#X
1"b
b0000 #&
b010 #D
b0100 "1
0#(
b0000111 P
0$5
#11
b0000000000000001 3
1$E
1"$
1"B
1Y
1E
b0000000000000001 i
b0000000000000001 "h
b0000000000000001 #3
1"R
1$#
1#X
b10 @
1V
1e
1#(
1A
#16
0#X
0"B
0#(
b0000000000000000 #I
b0000000000000000 I
0"R
#21
b0000000000000000 3
1"B
b0000001 w
b0000000001 '
b0000001 ";
b0000001 $U
b0000001 "~
1"R
1#X
b0000000001 "S
b0000000001 "[
1#(
b0000001 $4
b0000000001 $Y
#26
0#X
b0000000000000000 ",
0"B
b0000000000000000 #k
0#(
0"R
#31
b0000001 #d
1"B
b0000010 w
b0000000010 '
b0000010 ";
b0000001 "5
b0000000000000000 "h
b0000010 $U
b0000010 "~
1"R
1#X
b0000000010 "S
b0000001 s
b0000000010 "[
1#(
b0000010 $4
b0000000010 $Y
#36
0#X
b0000000000000001 ",
0"B
b0000000000000001 #k
0#(
b0000000000000001 #I
b0000000000000001 I
0"R
#41
b0000010 #d
1"B
b0000011 w
b0000000011 '
b0000011 ";
b0000010 "5
b0000011 $U
b0000011 "~
1"R
1#X
b0000000011 "S
b0000010 s
b0000000011 "[
1#(
b0000011 $4
b0000000011 $Y
#46
0#X
b0000000000000000 ",
0"B
b0000000000000000 #k
0#(
b0000000000000000 #I
b0000000000000000 I
0"R
#51
b0000011 #d
1"B
b0000100 w
b0000000100 '
b0000100 ";
b0000011 "5
b0000100 $U
b0000100 "~
1"R
1#X
b0000000100 "S
b0000011 s
b0000000100 "[
1#(
b0000100 $4
b0000000100 $Y
#56
0#X
0"B
0#(
0"R
#61
b0000000000000001 3
b0000100 #d
1"B
b0000101 w
b0000000101 '
b0000000 ";
b0000100 "5
b0000000 $U
b0000101 "~
1"R
1#X
b0000000000 "S
b0000100 s
1"(
b0000000101 "[
1#(
b0000000 $4
b0000000000 $Y
#66
0#X
0"B
0#(
0"R
#71
1#X
b0000101 #d
b0000101 s
1"B
b0000000110 "[
b0000000110 '
1#(
b0000101 "5
b0000110 "~
1"R
#76
0#X
0"B
0#(
b0000000000000001 #I
b0000000000000001 I
0"R
#81
1#X
b0000000 #d
b0000000 s
1"B
b0000000000 "[
b0000000000 '
1#(
b0000110 "5
b0000000000000001 "h
b0000111 "~
1"R
#86
0#X
b0000000000000001 ",
0"B
b0000000000000001 #k
0#(
b0000000000000000 #I
b0000000000000000 I
0"R
#91
1#X
1"B
1#(
b0000111 "5
1"R
#96
0#X
b0000000000000000 ",
0"B
b0000000000000000 #k
0#(
0"R
#101
1#X
1$+
1"B
1$J
1#(
b0000000 "5
1"R
#106
0#X
0"B
0#(
0"R
#111
b0000000000000000 3
0$E
0"$
1"B
0Y
0E
b0000000000000000 "h
1[
1"R
0$#
1#X
b11 @
0V
0e
1#(
0A
#116
0#X
b0000000000000001 ",
0"B
b0000000000000001 #k
0#(
b0000000000000001 #I
b0000000000000001 I
0"R
#121
1#X
1"B
b0000001 ";
1#(
1"G
b0000001 $4
b0000001 $U
1"R
#126
0#X
b0000000000000000 ",
0"B
b0000000000000000 #k
0#(
b0000000000000000 #I
b0000000000000000 I
0"R
#131
1#X
1"B
b0000010 ";
1#(
0"G
b0000010 $4
b0000010 $U
1"R
b0000000000000000 #3
#136
0#X
b0000000000000001 ",
0"B
b0000000000000001 #k
0#(
b0000000000000001 #I
b0000000000000001 I
0"R
#141
1#X
1"B
b0000011 ";
1#(
1"G
b0000011 $4
b0000011 $U
b0000000000000001 #;
1"R
b0000000000000001 #3
#146
0#X
0"B
0#(
0"R
#151
1#X
1"B
b0000000 ";
b0000000000000001 "&
1#(
0"G
b0000000 $4
b0000100 $U
1"R
#156
0#X
0"B
0#(
0"R
#161
1#X
1"B
b0000001 ";
1#(
1"G
b0000001 $4
b0000001 $U
1"R
#166
0#X
0"B
0#(
0"R
#171
1#X
1"B
b0000010 ";
1#(
0"G
b0000010 $4
b0000010 $U
b0000000000000001 /
1"R
#176
0#X
b0000000000000000 ",
0"B
b0000000000000000 #k
0#(
b0000000000000000 #I
b0000000000000000 I
0"R
#181
1#X
1"B
b0000011 ";
1#(
1"G
b0000011 $4
b0000011 $U
b0000000000000000 #;
1"R
b0000000000000000 #3
#186
0#X
0"B
0#(
0"R
#191
1#X
1"B
b0000000 ";
b0000000000000000 "&
1#(
0"G
b0000000 $4
b0000100 $U
1"R
#196
0#X
0"B
0#(
0"R
#201
1#X
1"B
b0000001 ";
b0000000000000000 i
1#(
1"G
b0000001 $4
b0000001 $U
1"R
#206
0#X
0"B
0#(
b0000000000000001 #I
b0000000000000001 I
0"R
#211
1#X
1"B
b0000010 ";
1#(
0"G
b0000010 $4
b0000010 $U
b0000000000000000 /
1"R
b0000000000000001 #3
#216
0#X
0"B
0#(
b0000000000000000 #I
b0000000000000000 I
0"R
#221
1#X
1"B
b0000011 ";
1#(
1"G
b0000011 $4
b0000011 $U
1"R
b0000000000000000 #3
#226
0#X
b0000000000000001 ",
0"B
b0000000000000001 #k
0#(
b0000000000000001 #I
b0000000000000001 I
0"R
#231
1#X
1"B
b0000000 ";
b0000000000000001 "&
1#(
0"G
b0000000 $4
b0000100 $U
1"R
b0000000000000001 #3
#236
0#X
0"B
0#(
b0000000000000000 #I
b0000000000000000 I
0"R
#241
1#X
1"B
b0000001 ";
b0000000000000001 i
1#(
1"G
b0000001 $4
b0000001 $U
1"R
b0000000000000000 #3
#246
0#X
b0000000000000000 ",
0"B
b0000000000000000 #k
0#(
b0000000000000001 #I
b0000000000000001 I
0"R
#251
1#X
1"B
b0000010 ";
1#(
0"G
b0000010 $4
b0000010 $U
1"R
b0000000000000001 #3
#256
0#X
b0000000000000001 ",
0"B
b0000000000000001 #k
0#(
b0000000000000000 #I
b0000000000000000 I
0"R
#261
1#X
1"B
b0000011 ";
1#(
1"G
b0000011 $4
b0000011 $U
b0000000000000001 #;
1"R
b0000000000000000 #3
#266
0#X
0"B
0#(
0"R
#271
1#X
1"B
b0000000 ";
1#(
0"G
b0000000 $4
b0000100 $U
1"R
#276
0#X
0"B
0#(
0"R
#281
1#X
1"B
b0000001 ";
1#(
1"G
b0000001 $4
b0000001 $U
1"R
#286
0#X
b0000000000000000 ",
b0000000000000000 #k
0"B
0#(
0"R
#291
1#X
1"B
b0000010 ";
1#(
0"G
b0000010 $4
b0000010 $U
1"R
#296
0#X
0"B
0#(
0"R
#301
1#X
1"B
b0000011 ";
1#(
1"G
b0000011 $4
b0000011 $U
b0000000000000000 #;
1"R
#306
0#X
0"B
0#(
b0000000000000001 #I
b0000000000000001 I
0"R
#311
1#X
1"B
b0000000 ";
b0000000000000000 "&
1#(
0"G
b0000000 $4
b0000100 $U
1"R
b0000000000000001 #3
#316
0#X
0"B
0#(
0"R
#321
1#X
1"B
b0000001 ";
b0000000000000000 i
1#(
1"G
b0000001 $4
b0000001 $U
1"R
#326
0#X
0"B
0#(
0"R
#331
1#X
1"B
b0000010 ";
1#(
0"G
b0000010 $4
b0000010 $U
1"R
#336
0#X
0"B
0#(
0"R
#341
1#X
1"B
b0000011 ";
1#(
1"G
b0000011 $4
b0000011 $U
1"R
#346
0#X
0"B
0#(
0"R
#351
1#X
1"B
b0000000 ";
1#(
0"G
b0000000 $4
b0000100 $U
1"R
#356
0#X
0"B
0#(
0"R
#361
1#X
1"B
b0000001 ";
1#(
1"G
b0000001 $4
b0000001 $U
1"R
#366
0#X
0"B
0#(
0"R
#371
1#X
1"B
b0000010 ";
1#(
0"G
b0000010 $4
b0000010 $U
1"R
#376
0#X
0"B
0#(
0"R
#381
1#X
1"B
b0000011 ";
1#(
1"G
b0000011 $4
b0000011 $U
1"R
#386
0#X
0"B
0#(
b0000000000000000 #I
b0000000000000000 I
0"R
#391
1#X
1"B
b0000000 ";
1#(
0"G
b0000000 $4
b0000100 $U
1"R
b0000000000000000 #3
#396
0#X
0"B
0#(
0"R
#401
1#X
1"B
b0000001 ";
1#(
1"G
b0000001 $4
b0000001 $U
1"R
#406
0#X
0"B
0#(
0"R
#411
1#X
1"B
b0000010 ";
1#(
0"G
b0000010 $4
b0000010 $U
1"R
#416
0#X
0"B
0#(
b0000000000000001 #I
b0000000000000001 I
0"R
#421
1#X
1"B
b0000011 ";
1#(
1"G
b0000011 $4
b0000011 $U
1"R
b0000000000000001 #3
#426
0#X
0"B
0#(
b0000000000000000 #I
b0000000000000000 I
0"R
#431
1#X
1"B
b0000000 ";
1#(
0"G
b0000000 $4
b0000100 $U
1"R
b0000000000000000 #3
#436
0#X
0"B
0#(
b0000000000000001 #I
b0000000000000001 I
0"R
#441
1#X
1"B
b0000001 ";
1#(
1"G
b0000001 $4
b0000001 $U
1"R
b0000000000000001 #3
#446
0#X
0"B
0#(
0"R
#451
1#X
1"B
b0000010 ";
1#(
0"G
b0000010 $4
b0000010 $U
1"R
#456
0#X
0"B
0#(
b0000000000000000 #I
b0000000000000000 I
0"R
#461
1#X
1"B
b0000011 ";
1#(
1"G
b0000011 $4
b0000011 $U
1"R
b0000000000000000 #3
#466
0#X
0"B
0#(
b0000000000000001 #I
b0000000000000001 I
0"R
#471
1#X
1"B
b0000000 ";
1#(
0"G
b0000000 $4
b0000100 $U
1"R
b0000000000000001 #3
#476
0#X
0"B
0#(
b0000000000000000 #I
b0000000000000000 I
0"R
